%!PS-Adobe-3.0 EPSF-3.0
%%Title: /home/guillaume/goal_prediction/Continuous/Ellipses.eps
%%Creator: matplotlib version 1.4.3, http://matplotlib.org/
%%CreationDate: Fri Aug 19 10:31:44 2016
%%Orientation: portrait
%%BoundingBox: -207 121 819 670
%%EndComments
%%BeginProlog
/mpldict 8 dict def
mpldict begin
/m { moveto } bind def
/l { lineto } bind def
/r { rlineto } bind def
/c { curveto } bind def
/cl { closepath } bind def
/box {
m
1 index 0 r
0 exch r
neg 0 r
cl
} bind def
/clipbox {
box
clip
newpath
} bind def
%!PS-Adobe-3.0 Resource-Font
%%Title: Bitstream Vera Sans
%%Copyright: Copyright (c) 2003 by Bitstream, Inc. All Rights Reserved.
%%Creator: Converted from TrueType to type 3 by PPR
25 dict begin
/_d{bind def}bind def
/_m{moveto}_d
/_l{lineto}_d
/_cl{closepath eofill}_d
/_c{curveto}_d
/_sc{7 -1 roll{setcachedevice}{pop pop pop pop pop pop}ifelse}_d
/_e{exec}_d
/FontName /BitstreamVeraSans-Roman def
/PaintType 0 def
/FontMatrix[.001 0 0 .001 0 0]def
/FontBBox[-183 -236 1287 928]def
/FontType 3 def
/Encoding [ /zero /one /two /five ] def
/FontInfo 10 dict dup begin
/FamilyName (Bitstream Vera Sans) def
/FullName (Bitstream Vera Sans) def
/Notice (Copyright (c) 2003 by Bitstream, Inc. All Rights Reserved. Bitstream Vera is a trademark of Bitstream, Inc.) def
/Weight (Roman) def
/Version (Release 1.10) def
/ItalicAngle 0.0 def
/isFixedPitch false def
/UnderlinePosition -213 def
/UnderlineThickness 143 def
end readonly def
/CharStrings 4 dict dup begin
/zero{636 0 66 -13 570 742 _sc
318 664 _m
267 664 229 639 203 589 _c
177 539 165 464 165 364 _c
165 264 177 189 203 139 _c
229 89 267 64 318 64 _c
369 64 407 89 433 139 _c
458 189 471 264 471 364 _c
471 464 458 539 433 589 _c
407 639 369 664 318 664 _c
318 742 _m
399 742 461 709 505 645 _c
548 580 570 486 570 364 _c
570 241 548 147 505 83 _c
461 19 399 -13 318 -13 _c
236 -13 173 19 130 83 _c
87 147 66 241 66 364 _c
66 486 87 580 130 645 _c
173 709 236 742 318 742 _c
_cl}_d
/one{636 0 110 0 544 729 _sc
124 83 _m
285 83 _l
285 639 _l
110 604 _l
110 694 _l
284 729 _l
383 729 _l
383 83 _l
544 83 _l
544 0 _l
124 0 _l
124 83 _l
_cl}_d
/two{{636 0 73 0 536 742 _sc
192 83 _m
536 83 _l
536 0 _l
73 0 _l
73 83 _l
110 121 161 173 226 239 _c
290 304 331 346 348 365 _c
380 400 402 430 414 455 _c
426 479 433 504 433 528 _c
433 566 419 598 392 622 _c
365 646 330 659 286 659 _c
255 659 222 653 188 643 _c
154 632 117 616 78 594 _c
78 694 _l
118 710 155 722 189 730 _c
223 738 255 742 284 742 _c
}_e{359 742 419 723 464 685 _c
509 647 532 597 532 534 _c
532 504 526 475 515 449 _c
504 422 484 390 454 354 _c
446 344 420 317 376 272 _c
332 227 271 164 192 83 _c
_cl}_e}_d
/five{{636 0 77 -13 549 729 _sc
108 729 _m
495 729 _l
495 646 _l
198 646 _l
198 467 _l
212 472 227 476 241 478 _c
255 480 270 482 284 482 _c
365 482 429 459 477 415 _c
525 370 549 310 549 234 _c
549 155 524 94 475 51 _c
426 8 357 -13 269 -13 _c
238 -13 207 -10 175 -6 _c
143 -1 111 6 77 17 _c
77 116 _l
106 100 136 88 168 80 _c
199 72 232 69 267 69 _c
}_e{323 69 368 83 401 113 _c
433 143 450 183 450 234 _c
450 284 433 324 401 354 _c
368 384 323 399 267 399 _c
241 399 214 396 188 390 _c
162 384 135 375 108 363 _c
108 729 _l
_cl}_e}_d
end readonly def

/BuildGlyph
 {exch begin
 CharStrings exch
 2 copy known not{pop /.notdef}if
 true 3 1 roll get exec
 end}_d

/BuildChar {
 1 index /Encoding get exch get
 1 index /BuildGlyph get exec
}_d

FontName currentdict end definefont pop
end
%%EndProlog
mpldict begin
-207.2 121.6 translate
1026.4 548.8 0 0 clipbox
gsave
0 0 m
1026.4 0 l
1026.4 548.8 l
0 548.8 l
cl
1.000 setgray
fill
grestore
gsave
306.51 54.88 m
745.55 54.88 l
745.55 493.92 l
306.51 493.92 l
cl
1.000 setgray
fill
grestore
1.000 setlinewidth
0 setlinejoin
0 setlinecap
[] 0 setdash
0.400 0.600 0.800 setrgbcolor
gsave
439 439 306.5 54.88 clipbox
463.531 362.208 m
461.939 362.208 l
460.174 362.208 l
460.174 359.921 l
460.174 356.541 l
458.941 355.62 l
457.229 354.608 l
455.264 353.669 l
453.053 352.81 l
450.606 352.033 l
447.932 351.34 l
445.043 350.736 l
441.949 350.222 l
438.663 349.801 l
435.199 349.473 l
431.57 349.242 l
427.791 349.106 l
423.877 349.068 l
419.845 349.126 l
415.709 349.282 l
411.487 349.534 l
407.197 349.881 l
402.854 350.322 l
398.477 350.854 l
394.083 351.477 l
389.69 352.187 l
385.316 352.982 l
380.978 353.858 l
376.694 354.812 l
372.481 355.84 l
368.356 356.938 l
364.335 358.101 l
360.435 359.325 l
356.671 360.605 l
353.059 361.935 l
350.966 362.771 l
349.922 363.181 l
349.718 363.269 l
349.613 363.311 l
348.364 363.852 l
346.066 364.842 l
342.492 366.537 l
339.216 368.258 l
336.25 369.999 l
333.606 371.753 l
331.295 373.513 l
329.326 375.272 l
329.015 375.608 l
326.97 377.515 l
321.585 382.991 l
320.253 384.472 l
319.992 384.723 l
318.875 385.96 l
317.776 387.344 l
316.697 388.87 l
315.644 390.531 l
314.62 392.322 l
313.629 394.234 l
312.677 396.261 l
311.766 398.394 l
310.899 400.624 l
310.082 402.942 l
309.316 405.339 l
308.606 407.806 l
307.953 410.333 l
307.361 412.908 l
306.832 415.523 l
306.367 418.166 l
305.97 420.826 l
305.641 423.494 l
305.382 426.158 l
305.193 428.808 l
305.077 431.432 l
305.032 434.021 l
305.059 436.564 l
305.159 439.05 l
305.33 441.471 l
305.573 443.815 l
305.885 446.073 l
306.267 448.237 l
306.715 450.298 l
307.229 452.247 l
307.807 454.076 l
308.445 455.779 l
309.142 457.348 l
309.895 458.777 l
310.701 460.06 l
311.353 460.924 l
311.347 460.942 l
311.168 461.632 l
311.036 462.342 l
310.952 463.069 l
310.916 463.809 l
310.929 464.561 l
310.991 465.32 l
311.101 466.083 l
311.258 466.848 l
311.463 467.612 l
311.714 468.371 l
312.011 469.123 l
312.351 469.864 l
312.735 470.591 l
313.159 471.302 l
313.623 471.993 l
314.125 472.662 l
314.34 472.92 l
314.961 473.726 l
316.54 475.476 l
318.323 477.19 l
320.3 478.861 l
322.466 480.482 l
324.81 482.047 l
327.324 483.549 l
329.997 484.983 l
332.818 486.342 l
335.777 487.621 l
338.86 488.814 l
342.057 489.918 l
345.354 490.928 l
346.829 491.325 l
347.67 491.564 l
350.433 492.242 l
353.284 492.839 l
356.211 493.351 l
359.204 493.777 l
362.25 494.116 l
365.337 494.365 l
368.452 494.524 l
371.582 494.593 l
374.716 494.57 l
377.841 494.456 l
380.943 494.252 l
384.011 493.958 l
387.031 493.575 l
389.993 493.106 l
392.884 492.551 l
395.692 491.913 l
398.407 491.195 l
401.016 490.4 l
403.51 489.53 l
405.879 488.59 l
408.113 487.583 l
410.202 486.513 l
411.136 485.969 l
411.133 485.977 l
411.483 485.767 l
412.14 485.384 l
412.341 485.25 l
415.253 483.497 l
419.721 480.554 l
424.046 477.444 l
428.212 474.179 l
429.938 472.706 l
430.691 472.097 l
432.181 470.751 l
433.656 469.278 l
435.109 467.683 l
436.535 465.973 l
437.927 464.154 l
439.282 462.234 l
439.676 461.628 l
439.96 461.21 l
440.312 460.651 l
440.417 460.489 l
440.417 460.484 l
440.956 459.629 l
441.901 458.008 l
442.792 456.356 l
443.625 454.678 l
444.396 452.982 l
445.102 451.273 l
445.741 449.56 l
446.31 447.848 l
446.806 446.145 l
447.228 444.457 l
447.574 442.792 l
447.843 441.156 l
448.033 439.556 l
448.144 437.998 l
448.175 436.488 l
448.126 435.033 l
447.998 433.638 l
447.79 432.308 l
447.505 431.051 l
447.142 429.869 l
446.703 428.769 l
446.347 428.064 l
440.417 428.064 l
440.417 423.274 l
440.417 406.112 l
445.539 406.112 l
477.282 406.112 l
485.875 406.112 l
487.638 405.373 l
492.602 403.121 l
497.66 400.661 l
502.792 398.002 l
507.978 395.154 l
513.198 392.13 l
518.429 388.941 l
523.651 385.6 l
528.842 382.121 l
533.983 378.517 l
539.052 374.804 l
544.028 370.995 l
548.893 367.107 l
553.625 363.155 l
558.207 359.155 l
562.619 355.123 l
566.844 351.076 l
570.865 347.029 l
574.666 342.999 l
578.231 339.002 l
581.547 335.054 l
584.598 331.172 l
587.375 327.37 l
589.864 323.665 l
591.886 320.35 l
591.886 319.398 l
591.886 301.651 l
591.886 296.352 l
648.437 296.352 l
648.475 296.327 l
650.368 295.018 l
652.157 293.671 l
653.836 292.29 l
653.907 292.226 l
657.053 289.645 l
662.188 285.071 l
667.261 280.189 l
672.252 275.019 l
677.14 269.581 l
677.918 268.653 l
677.973 268.594 l
680.338 265.786 l
682.7 262.703 l
685.05 259.358 l
687.379 255.764 l
689.677 251.936 l
691.934 247.889 l
694.142 243.639 l
696.292 239.204 l
698.375 234.601 l
700.383 229.849 l
702.307 224.967 l
704.141 219.975 l
705.876 214.892 l
707.505 209.74 l
709.023 204.539 l
710.423 199.309 l
711.698 194.073 l
712.845 188.851 l
713.859 183.663 l
714.735 178.532 l
715.469 173.478 l
716.06 168.52 l
716.504 163.679 l
716.8 158.975 l
716.947 154.427 l
716.944 150.052 l
716.79 145.868 l
716.488 141.892 l
716.037 138.141 l
715.439 134.629 l
714.698 131.37 l
713.816 128.378 l
712.797 125.665 l
711.644 123.241 l
710.362 121.116 l
708.958 119.3 l
707.435 117.798 l
705.8 116.617 l
704.061 115.763 l
702.223 115.238 l
700.295 115.044 l
698.283 115.183 l
696.197 115.654 l
694.044 116.454 l
691.834 117.581 l
689.574 119.03 l
687.275 120.795 l
684.946 122.87 l
682.595 125.245 l
680.232 127.911 l
677.868 130.858 l
675.51 134.074 l
673.17 137.545 l
670.856 141.258 l
668.577 145.197 l
666.343 149.348 l
664.163 153.692 l
662.046 158.214 l
659.999 162.894 l
658.032 167.713 l
657.742 168.475 l
657.742 274.4 l
621.155 274.4 l
601.21 274.4 l
591.529 274.4 l
588.948 275.471 l
583.607 277.845 l
578.256 280.383 l
572.915 283.073 l
567.607 285.905 l
562.352 288.867 l
557.171 291.949 l
552.087 295.136 l
547.118 298.416 l
542.286 301.777 l
537.609 305.204 l
533.106 308.684 l
528.796 312.202 l
524.695 315.746 l
523.332 316.996 l
523.321 317.005 l
523.189 317.127 l
520.821 319.299 l
520.67 319.447 l
520.569 319.54 l
517.927 322.114 l
515.406 324.717 l
513.016 327.338 l
510.767 329.967 l
508.668 332.593 l
506.727 335.205 l
504.952 337.794 l
504.078 339.189 l
504.078 362.208 l
467.212 362.208 l
463.531 362.208 l
328.462 384.16 m
413.316 384.16 l
414.5 384.16 l
416.27 384.16 l
416.27 386.459 l
416.27 388.766 l
416.455 388.915 l
417.622 389.651 l
418.961 390.32 l
420.465 390.921 l
422.13 391.45 l
423.947 391.905 l
425.911 392.285 l
428.012 392.588 l
430.243 392.813 l
432.595 392.959 l
432.677 392.961 l
430.836 395.227 l
427.785 399.218 l
424.865 403.28 l
422.087 407.398 l
419.462 411.554 l
417.001 415.734 l
416.27 417.071 l
416.27 417.6 l
416.27 422.765 l
416.27 439.536 l
416.27 471.968 l
328.462 471.968 l
328.462 457.4 l
328.462 457.112 l
328.462 384.16 l
gsave
fill
grestore
stroke
grestore
0.800 0.400 0.600 setrgbcolor
gsave
439 439 306.5 54.88 clipbox
460.174 98.784 m
480.146 98.784 l
480.444 98.5159 l
481.397 97.5833 l
482.308 96.6114 l
483.175 95.6041 l
483.993 94.5653 l
484.759 93.4994 l
485.471 92.4105 l
486.125 91.3031 l
486.718 90.1816 l
487.249 89.0506 l
487.715 87.9146 l
488.115 86.7781 l
488.446 85.6458 l
488.707 84.5222 l
488.898 83.4118 l
489.017 82.3191 l
489.065 81.2485 l
489.04 80.2044 l
488.943 79.1908 l
488.774 78.212 l
488.535 77.2718 l
488.226 76.374 l
487.847 75.5222 l
487.402 74.72 l
486.891 73.9704 l
486.317 73.2765 l
485.681 72.6412 l
484.988 72.0669 l
484.238 71.5561 l
483.436 71.1106 l
482.584 70.7324 l
481.686 70.423 l
480.746 70.1835 l
479.767 70.015 l
478.754 69.9182 l
477.709 69.8934 l
476.639 69.9407 l
475.546 70.06 l
474.436 70.2508 l
473.312 70.5122 l
472.18 70.8433 l
471.043 71.2427 l
469.907 71.7088 l
468.776 72.2397 l
467.655 72.8333 l
466.965 73.2409 l
466.834 73.3104 l
466.729 73.3799 l
466.547 73.4873 l
465.459 74.1988 l
465.002 74.5268 l
463.191 75.7296 l
459.448 78.6837 l
455.62 82.1606 l
451.721 86.1464 l
447.768 90.6251 l
443.777 95.5787 l
439.763 100.987 l
435.743 106.829 l
431.733 113.08 l
427.749 119.715 l
423.807 126.708 l
419.924 134.031 l
417.916 138.048 l
417.74 138.385 l
417.401 139.078 l
416.114 141.654 l
415.362 143.247 l
414.654 144.697 l
411.618 151.31 l
408.645 158.198 l
405.747 165.333 l
402.936 172.686 l
400.222 180.227 l
397.618 187.927 l
395.132 195.754 l
394.318 198.492 l
394.318 340.256 l
356.043 340.256 l
353.665 341.616 l
351.233 343.107 l
348.842 344.675 l
346.501 346.313 l
344.221 348.016 l
342.009 349.775 l
339.876 351.585 l
337.829 353.437 l
335.878 355.325 l
334.029 357.241 l
332.29 359.176 l
331.402 360.243 l
330.65 361.118 l
327.373 365.207 l
324.212 369.439 l
321.178 373.797 l
318.284 378.263 l
315.542 382.818 l
312.962 387.446 l
310.554 392.126 l
308.33 396.841 l
308.086 397.408 l
307.298 399.205 l
306.346 401.613 l
305.461 404.106 l
304.647 406.672 l
304.315 407.851 l
304.315 453.505 l
304.982 455.177 l
305.826 456.981 l
306.74 458.646 l
307.719 460.167 l
308.759 461.535 l
309.857 462.747 l
311.008 463.798 l
312.206 464.682 l
313.448 465.397 l
314.729 465.939 l
316.042 466.307 l
317.384 466.499 l
318.748 466.513 l
320.129 466.351 l
321.521 466.013 l
322.92 465.5 l
324.318 464.813 l
325.711 463.957 l
327.093 462.934 l
328.459 461.749 l
328.462 461.746 l
328.462 384.16 l
366.718 384.16 l
367.887 383.515 l
370.336 382.065 l
372.749 380.535 l
375.115 378.931 l
377.427 377.259 l
379.674 375.527 l
381.848 373.742 l
383.939 371.91 l
385.939 370.039 l
386.325 369.652 l
386.588 369.404 l
387.238 368.739 l
387.84 368.136 l
388.134 367.821 l
392.469 363.38 l
398.357 356.865 l
404.228 349.885 l
410.06 342.469 l
415.829 334.646 l
421.51 326.448 l
425.03 321.054 l
425.731 320.019 l
426.32 319.077 l
426.499 318.802 l
426.486 318.811 l
428.896 314.953 l
432.054 309.503 l
435.194 303.69 l
438.301 297.538 l
441.363 291.073 l
444.369 284.319 l
447.306 277.304 l
450.162 270.056 l
452.926 262.605 l
455.586 254.981 l
458.132 247.214 l
460.174 240.572 l
460.174 98.784 l
gsave
fill
grestore
stroke
grestore
0.600 0.800 0.400 setrgbcolor
gsave
439 439 306.5 54.88 clipbox
463.531 362.208 m
461.939 362.208 l
460.174 362.208 l
460.174 359.921 l
460.174 356.541 l
458.941 355.62 l
457.229 354.608 l
455.264 353.669 l
453.053 352.81 l
450.606 352.033 l
447.932 351.34 l
445.043 350.736 l
441.949 350.222 l
438.663 349.801 l
435.199 349.473 l
431.57 349.242 l
427.791 349.106 l
423.877 349.068 l
419.845 349.126 l
415.709 349.282 l
411.487 349.534 l
407.197 349.881 l
402.854 350.322 l
398.477 350.854 l
394.083 351.477 l
389.69 352.187 l
385.316 352.982 l
380.978 353.858 l
376.694 354.812 l
372.481 355.84 l
368.356 356.938 l
364.335 358.101 l
360.435 359.325 l
356.671 360.605 l
353.059 361.935 l
350.966 362.771 l
349.922 363.181 l
349.718 363.269 l
349.613 363.311 l
348.364 363.852 l
346.066 364.842 l
342.492 366.537 l
339.216 368.258 l
336.25 369.999 l
333.606 371.753 l
331.295 373.513 l
329.326 375.272 l
329.015 375.608 l
326.97 377.515 l
321.585 382.991 l
320.253 384.472 l
319.992 384.723 l
318.875 385.96 l
317.776 387.344 l
316.697 388.87 l
315.644 390.531 l
314.62 392.322 l
313.629 394.234 l
312.677 396.261 l
311.766 398.394 l
310.899 400.624 l
310.082 402.942 l
309.316 405.339 l
308.606 407.806 l
307.953 410.333 l
307.361 412.908 l
306.832 415.523 l
306.367 418.166 l
305.97 420.826 l
305.641 423.494 l
305.382 426.158 l
305.193 428.808 l
305.077 431.432 l
305.032 434.021 l
305.059 436.564 l
305.159 439.05 l
305.33 441.471 l
305.573 443.815 l
305.885 446.073 l
306.267 448.237 l
306.715 450.298 l
307.229 452.247 l
307.807 454.076 l
308.445 455.779 l
309.142 457.348 l
309.895 458.777 l
310.701 460.06 l
311.353 460.924 l
311.347 460.942 l
311.168 461.632 l
311.036 462.342 l
310.952 463.069 l
310.916 463.809 l
310.929 464.561 l
310.991 465.32 l
311.101 466.083 l
311.258 466.848 l
311.463 467.612 l
311.714 468.371 l
312.011 469.123 l
312.351 469.864 l
312.735 470.591 l
313.159 471.302 l
313.623 471.993 l
314.125 472.662 l
314.34 472.92 l
314.961 473.726 l
316.54 475.476 l
318.323 477.19 l
320.3 478.861 l
322.466 480.482 l
324.81 482.047 l
327.324 483.549 l
329.997 484.983 l
332.818 486.342 l
335.777 487.621 l
338.86 488.814 l
342.057 489.918 l
345.354 490.928 l
346.829 491.325 l
347.67 491.564 l
350.433 492.242 l
353.284 492.839 l
356.211 493.351 l
359.204 493.777 l
362.25 494.116 l
365.337 494.365 l
368.452 494.524 l
371.582 494.593 l
374.716 494.57 l
377.841 494.456 l
380.943 494.252 l
384.011 493.958 l
387.031 493.575 l
389.993 493.106 l
392.884 492.551 l
395.692 491.913 l
398.407 491.195 l
401.016 490.4 l
403.51 489.53 l
405.879 488.59 l
408.113 487.583 l
410.202 486.513 l
411.136 485.969 l
411.133 485.977 l
411.483 485.767 l
412.14 485.384 l
412.341 485.25 l
415.253 483.497 l
419.721 480.554 l
424.046 477.444 l
428.212 474.179 l
429.938 472.706 l
430.691 472.097 l
432.181 470.751 l
433.656 469.278 l
435.109 467.683 l
436.535 465.973 l
437.927 464.154 l
439.282 462.234 l
439.676 461.628 l
439.96 461.21 l
440.312 460.651 l
440.417 460.489 l
440.417 460.484 l
440.956 459.629 l
441.901 458.008 l
442.792 456.356 l
443.625 454.678 l
444.396 452.982 l
445.102 451.273 l
445.741 449.56 l
446.31 447.848 l
446.806 446.145 l
447.228 444.457 l
447.574 442.792 l
447.843 441.156 l
448.033 439.556 l
448.144 437.998 l
448.175 436.488 l
448.126 435.033 l
447.998 433.638 l
447.79 432.308 l
447.505 431.051 l
447.142 429.869 l
446.703 428.769 l
446.347 428.064 l
440.417 428.064 l
440.417 423.274 l
440.417 406.112 l
445.539 406.112 l
477.282 406.112 l
485.875 406.112 l
487.638 405.373 l
492.602 403.121 l
497.66 400.661 l
502.792 398.002 l
507.978 395.154 l
513.198 392.13 l
518.429 388.941 l
523.651 385.6 l
528.842 382.121 l
533.983 378.517 l
539.052 374.804 l
544.028 370.995 l
548.893 367.107 l
553.625 363.155 l
558.207 359.155 l
562.619 355.123 l
566.844 351.076 l
570.865 347.029 l
574.666 342.999 l
578.231 339.002 l
581.547 335.054 l
584.598 331.172 l
587.375 327.37 l
589.864 323.665 l
591.886 320.35 l
591.886 319.398 l
591.886 301.651 l
591.886 296.352 l
657.742 296.352 l
657.742 383.833 l
658.412 385.473 l
660.272 389.722 l
662.211 393.86 l
664.219 397.871 l
666.29 401.739 l
668.416 405.447 l
670.586 408.981 l
672.793 412.326 l
675.028 415.47 l
677.282 418.399 l
679.545 421.102 l
681.809 423.568 l
684.065 425.787 l
686.303 427.75 l
688.514 429.449 l
690.69 430.877 l
692.821 432.029 l
694.9 432.899 l
696.917 433.485 l
698.865 433.784 l
700.736 433.795 l
702.522 433.517 l
704.217 432.952 l
705.812 432.103 l
707.302 430.972 l
708.682 429.564 l
709.944 427.885 l
711.085 425.941 l
712.099 423.741 l
712.983 421.293 l
713.732 418.607 l
714.345 415.694 l
714.818 412.565 l
715.15 409.234 l
715.339 405.714 l
715.384 402.018 l
715.286 398.162 l
715.044 394.161 l
714.66 390.032 l
714.135 385.79 l
713.472 381.454 l
712.672 377.04 l
711.74 372.566 l
710.679 368.051 l
709.493 363.512 l
708.186 358.968 l
706.766 354.437 l
705.236 349.937 l
703.603 345.487 l
701.874 341.104 l
700.056 336.806 l
698.156 332.61 l
696.181 328.533 l
694.14 324.592 l
692.041 320.803 l
689.892 317.18 l
687.702 313.738 l
685.48 310.492 l
683.235 307.454 l
680.975 304.636 l
678.71 302.05 l
676.449 299.707 l
674.202 297.615 l
671.976 295.783 l
671.548 295.478 l
669.074 293.522 l
663.802 289.7 l
658.461 286.17 l
654.117 283.571 l
653.444 283.158 l
651.762 282.25 l
649.971 281.398 l
648.079 280.606 l
646.093 279.878 l
644.022 279.216 l
641.873 278.623 l
639.656 278.101 l
637.379 277.653 l
635.051 277.28 l
632.682 276.984 l
630.281 276.766 l
627.858 276.627 l
625.424 276.567 l
622.986 276.587 l
620.556 276.687 l
618.143 276.865 l
617.694 276.914 l
617.356 276.94 l
616.422 277.051 l
615.757 277.123 l
615.473 277.163 l
612.252 277.543 l
607.022 278.355 l
601.686 279.371 l
596.267 280.589 l
590.786 282.002 l
585.266 283.606 l
579.727 285.393 l
574.194 287.358 l
568.687 289.491 l
563.23 291.784 l
557.844 294.229 l
555.382 295.431 l
554.318 295.932 l
551.122 297.559 l
547.913 299.313 l
544.704 301.188 l
541.508 303.177 l
538.338 305.27 l
535.208 307.46 l
532.128 309.738 l
529.113 312.094 l
526.173 314.52 l
523.321 317.005 l
520.569 319.54 l
517.927 322.114 l
515.406 324.717 l
513.016 327.338 l
510.767 329.967 l
508.668 332.593 l
506.727 335.205 l
504.952 337.794 l
504.078 339.189 l
504.078 362.208 l
467.212 362.208 l
463.531 362.208 l
328.462 384.16 m
413.316 384.16 l
414.5 384.16 l
416.27 384.16 l
416.27 386.459 l
416.27 388.766 l
416.455 388.915 l
417.622 389.651 l
418.961 390.32 l
420.465 390.921 l
422.13 391.45 l
423.947 391.905 l
425.911 392.285 l
428.012 392.588 l
430.243 392.813 l
432.595 392.959 l
432.677 392.961 l
430.836 395.227 l
427.785 399.218 l
424.865 403.28 l
422.087 407.398 l
419.462 411.554 l
417.001 415.734 l
416.27 417.071 l
416.27 417.6 l
416.27 422.765 l
416.27 439.536 l
416.27 471.968 l
328.462 471.968 l
328.462 457.4 l
328.462 457.112 l
328.462 384.16 l
gsave
fill
grestore
stroke
grestore
0.000 setgray
gsave
439 439 306.5 54.88 clipbox
328.462 471.968 m
416.27 471.968 l
416.27 384.16 l
328.462 384.16 l
328.462 471.968 l
gsave
fill
grestore
stroke
grestore
gsave
439 439 306.5 54.88 clipbox
440.417 428.064 m
550.177 428.064 l
550.177 406.112 l
440.417 406.112 l
440.417 428.064 l
gsave
fill
grestore
stroke
grestore
gsave
439 439 306.5 54.88 clipbox
328.462 340.256 m
394.318 340.256 l
394.318 120.736 l
328.462 120.736 l
328.462 340.256 l
gsave
fill
grestore
stroke
grestore
gsave
439 439 306.5 54.88 clipbox
460.174 362.208 m
504.078 362.208 l
504.078 98.784 l
460.174 98.784 l
460.174 362.208 l
gsave
fill
grestore
stroke
grestore
gsave
439 439 306.5 54.88 clipbox
591.886 493.92 m
657.742 493.92 l
657.742 296.352 l
591.886 296.352 l
591.886 493.92 l
gsave
fill
grestore
stroke
grestore
gsave
439 439 306.5 54.88 clipbox
526.03 274.4 m
657.742 274.4 l
657.742 142.688 l
526.03 142.688 l
526.03 274.4 l
gsave
fill
grestore
stroke
grestore
0.500 setlinewidth
1 setlinejoin
gsave
439 439 306.5 54.88 clipbox
/o {
gsave
newpath
translate
0.5 setlinewidth
1 setlinejoin
0 setlinecap
0 -3 m
0.795609 -3 1.55874 -2.6839 2.12132 -2.12132 c
2.6839 -1.55874 3 -0.795609 3 0 c
3 0.795609 2.6839 1.55874 2.12132 2.12132 c
1.55874 2.6839 0.795609 3 0 3 c
-0.795609 3 -1.55874 2.6839 -2.12132 2.12132 c
-2.6839 1.55874 -3 0.795609 -3 0 c
-3 -0.795609 -2.6839 -1.55874 -2.12132 -2.12132 c
-1.55874 -2.6839 -0.795609 -3 0 -3 c
cl
gsave
1.000 0.200 0.200 setrgbcolor
fill
grestore
stroke
grestore
} bind def
317.486 460.992 o
grestore
gsave
439 439 306.5 54.88 clipbox
/o {
gsave
newpath
translate
0.5 setlinewidth
1 setlinejoin
0 setlinecap
0 -3 m
0.795609 -3 1.55874 -2.6839 2.12132 -2.12132 c
2.6839 -1.55874 3 -0.795609 3 0 c
3 0.795609 2.6839 1.55874 2.12132 2.12132 c
1.55874 2.6839 0.795609 3 0 3 c
-0.795609 3 -1.55874 2.6839 -2.12132 2.12132 c
-2.6839 1.55874 -3 0.795609 -3 0 c
-3 -0.795609 -2.6839 -1.55874 -2.12132 -2.12132 c
-1.55874 -2.6839 -0.795609 -3 0 -3 c
cl
gsave
0.400 0.600 0.800 setrgbcolor
fill
grestore
stroke
grestore
} bind def
701.646 120.736 o
grestore
gsave
439 439 306.5 54.88 clipbox
/o {
gsave
newpath
translate
0.5 setlinewidth
1 setlinejoin
0 setlinecap
0 -3 m
0.795609 -3 1.55874 -2.6839 2.12132 -2.12132 c
2.6839 -1.55874 3 -0.795609 3 0 c
3 0.795609 2.6839 1.55874 2.12132 2.12132 c
1.55874 2.6839 0.795609 3 0 3 c
-0.795609 3 -1.55874 2.6839 -2.12132 2.12132 c
-2.6839 1.55874 -3 0.795609 -3 0 c
-3 -0.795609 -2.6839 -1.55874 -2.12132 -2.12132 c
-1.55874 -2.6839 -0.795609 -3 0 -3 c
cl
gsave
0.800 0.400 0.600 setrgbcolor
fill
grestore
stroke
grestore
} bind def
482.126 76.832 o
grestore
gsave
439 439 306.5 54.88 clipbox
/o {
gsave
newpath
translate
0.5 setlinewidth
1 setlinejoin
0 setlinecap
0 -3 m
0.795609 -3 1.55874 -2.6839 2.12132 -2.12132 c
2.6839 -1.55874 3 -0.795609 3 0 c
3 0.795609 2.6839 1.55874 2.12132 2.12132 c
1.55874 2.6839 0.795609 3 0 3 c
-0.795609 3 -1.55874 2.6839 -2.12132 2.12132 c
-2.6839 1.55874 -3 0.795609 -3 0 c
-3 -0.795609 -2.6839 -1.55874 -2.12132 -2.12132 c
-1.55874 -2.6839 -0.795609 -3 0 -3 c
cl
gsave
0.600 0.800 0.400 setrgbcolor
fill
grestore
stroke
grestore
} bind def
701.646 428.064 o
grestore
1.000 setlinewidth
0 setlinejoin
2 setlinecap
gsave
306.51 493.92 m
745.55 493.92 l
stroke
grestore
gsave
745.55 54.88 m
745.55 493.92 l
stroke
grestore
gsave
306.51 54.88 m
745.55 54.88 l
stroke
grestore
gsave
306.51 54.88 m
306.51 493.92 l
stroke
grestore
0.500 setlinewidth
1 setlinejoin
0 setlinecap
gsave
/o {
gsave
newpath
translate
0.5 setlinewidth
1 setlinejoin
0 setlinecap
0 0 m
0 4 l
gsave
0.000 setgray
fill
grestore
stroke
grestore
} bind def
306.51 54.88 o
grestore
gsave
/o {
gsave
newpath
translate
0.5 setlinewidth
1 setlinejoin
0 setlinecap
0 0 m
0 -4 l
gsave
0.000 setgray
fill
grestore
stroke
grestore
} bind def
306.51 493.92 o
grestore
/BitstreamVeraSans-Roman findfont
12.000 scalefont
setfont
gsave
303.486562 41.755000 translate
0.000000 rotate
0.000000 0.000000 m /zero glyphshow
grestore
gsave
/o {
gsave
newpath
translate
0.5 setlinewidth
1 setlinejoin
0 setlinecap
0 0 m
0 4 l
gsave
0.000 setgray
fill
grestore
stroke
grestore
} bind def
416.27 54.88 o
grestore
gsave
/o {
gsave
newpath
translate
0.5 setlinewidth
1 setlinejoin
0 setlinecap
0 0 m
0 -4 l
gsave
0.000 setgray
fill
grestore
stroke
grestore
} bind def
416.27 493.92 o
grestore
gsave
409.488750 41.755000 translate
0.000000 rotate
0.000000 0.000000 m /five glyphshow
7.634766 0.000000 m /zero glyphshow
grestore
gsave
/o {
gsave
newpath
translate
0.5 setlinewidth
1 setlinejoin
0 setlinecap
0 0 m
0 4 l
gsave
0.000 setgray
fill
grestore
stroke
grestore
} bind def
526.03 54.88 o
grestore
gsave
/o {
gsave
newpath
translate
0.5 setlinewidth
1 setlinejoin
0 setlinecap
0 0 m
0 -4 l
gsave
0.000 setgray
fill
grestore
stroke
grestore
} bind def
526.03 493.92 o
grestore
gsave
515.623750 41.755000 translate
0.000000 rotate
0.000000 0.000000 m /one glyphshow
7.634766 0.000000 m /zero glyphshow
15.269531 0.000000 m /zero glyphshow
grestore
gsave
/o {
gsave
newpath
translate
0.5 setlinewidth
1 setlinejoin
0 setlinecap
0 0 m
0 4 l
gsave
0.000 setgray
fill
grestore
stroke
grestore
} bind def
635.79 54.88 o
grestore
gsave
/o {
gsave
newpath
translate
0.5 setlinewidth
1 setlinejoin
0 setlinecap
0 0 m
0 -4 l
gsave
0.000 setgray
fill
grestore
stroke
grestore
} bind def
635.79 493.92 o
grestore
gsave
625.383750 41.755000 translate
0.000000 rotate
0.000000 0.000000 m /one glyphshow
7.634766 0.000000 m /five glyphshow
15.269531 0.000000 m /zero glyphshow
grestore
gsave
/o {
gsave
newpath
translate
0.5 setlinewidth
1 setlinejoin
0 setlinecap
0 0 m
0 4 l
gsave
0.000 setgray
fill
grestore
stroke
grestore
} bind def
745.55 54.88 o
grestore
gsave
/o {
gsave
newpath
translate
0.5 setlinewidth
1 setlinejoin
0 setlinecap
0 0 m
0 -4 l
gsave
0.000 setgray
fill
grestore
stroke
grestore
} bind def
745.55 493.92 o
grestore
gsave
734.925000 41.755000 translate
0.000000 rotate
0.000000 0.000000 m /two glyphshow
7.634766 0.000000 m /zero glyphshow
15.269531 0.000000 m /zero glyphshow
grestore
gsave
/o {
gsave
newpath
translate
0.5 setlinewidth
1 setlinejoin
0 setlinecap
0 0 m
4 0 l
gsave
0.000 setgray
fill
grestore
stroke
grestore
} bind def
306.51 54.88 o
grestore
gsave
/o {
gsave
newpath
translate
0.5 setlinewidth
1 setlinejoin
0 setlinecap
0 0 m
-4 0 l
gsave
0.000 setgray
fill
grestore
stroke
grestore
} bind def
745.55 54.88 o
grestore
gsave
296.463125 51.567500 translate
0.000000 rotate
0.000000 0.000000 m /zero glyphshow
grestore
gsave
/o {
gsave
newpath
translate
0.5 setlinewidth
1 setlinejoin
0 setlinecap
0 0 m
4 0 l
gsave
0.000 setgray
fill
grestore
stroke
grestore
} bind def
306.51 164.64 o
grestore
gsave
/o {
gsave
newpath
translate
0.5 setlinewidth
1 setlinejoin
0 setlinecap
0 0 m
-4 0 l
gsave
0.000 setgray
fill
grestore
stroke
grestore
} bind def
745.55 164.64 o
grestore
gsave
288.947500 161.327500 translate
0.000000 rotate
0.000000 0.000000 m /five glyphshow
7.634766 0.000000 m /zero glyphshow
grestore
gsave
/o {
gsave
newpath
translate
0.5 setlinewidth
1 setlinejoin
0 setlinecap
0 0 m
4 0 l
gsave
0.000 setgray
fill
grestore
stroke
grestore
} bind def
306.51 274.4 o
grestore
gsave
/o {
gsave
newpath
translate
0.5 setlinewidth
1 setlinejoin
0 setlinecap
0 0 m
-4 0 l
gsave
0.000 setgray
fill
grestore
stroke
grestore
} bind def
745.55 274.4 o
grestore
gsave
281.697500 271.087500 translate
0.000000 rotate
0.000000 0.000000 m /one glyphshow
7.634766 0.000000 m /zero glyphshow
15.269531 0.000000 m /zero glyphshow
grestore
gsave
/o {
gsave
newpath
translate
0.5 setlinewidth
1 setlinejoin
0 setlinecap
0 0 m
4 0 l
gsave
0.000 setgray
fill
grestore
stroke
grestore
} bind def
306.51 384.16 o
grestore
gsave
/o {
gsave
newpath
translate
0.5 setlinewidth
1 setlinejoin
0 setlinecap
0 0 m
-4 0 l
gsave
0.000 setgray
fill
grestore
stroke
grestore
} bind def
745.55 384.16 o
grestore
gsave
281.697500 380.847500 translate
0.000000 rotate
0.000000 0.000000 m /one glyphshow
7.634766 0.000000 m /five glyphshow
15.269531 0.000000 m /zero glyphshow
grestore
gsave
/o {
gsave
newpath
translate
0.5 setlinewidth
1 setlinejoin
0 setlinecap
0 0 m
4 0 l
gsave
0.000 setgray
fill
grestore
stroke
grestore
} bind def
306.51 493.92 o
grestore
gsave
/o {
gsave
newpath
translate
0.5 setlinewidth
1 setlinejoin
0 setlinecap
0 0 m
-4 0 l
gsave
0.000 setgray
fill
grestore
stroke
grestore
} bind def
745.55 493.92 o
grestore
gsave
281.260000 490.607500 translate
0.000000 rotate
0.000000 0.000000 m /two glyphshow
7.634766 0.000000 m /zero glyphshow
15.269531 0.000000 m /zero glyphshow
grestore

end
showpage
